Analyis of Web Browsing Data
…
For those less acquainted with computational methods, we begin with some basic examples so that you can familiarize yourself with browsing data. You will still need to install the packages and load the data as described above.

First, let’s get a feeling for the data: How many participants are in the data?

dt_warmup <- dt
dt_warmup %>% distinct(panelist_id) %>% nrow()

[1] 100

What is the number of visits per participant?

dt_warmup %>% group_by(panelist_id) %>%
  summarize(n_visits = n())

# A tibble: 100 × 2
   panelist_id n_visits
   <chr>          <int>
 1 0FcfTn9VDG     18075
 2 1amvqVlZOT      9083
 3 1c4XiaDGYx     14470
 4 1i4XlNVP5E     58650
 5 1wMa7rDJHE     47173
 6 2na1X4OOYs     19852
 7 32Apox0I46    111931
 8 3u7JEyZBdP     12059
 9 4HVpSqa344     60075
10 5ptK95BQBY      3982
# ℹ 90 more rows
…
